module gdpaudiotest-telegram-bot

go 1.20

require (
	cloud.google.com/go/speech v1.14.1
	cloud.google.com/go/texttospeech v1.5.0
	github.com/cavaliergopher/grab/v3 v3.0.1
	github.com/go-telegram-bot-api/telegram-bot-api/v5 v5.5.1
	github.com/sashabaranov/go-gpt3 v1.2.1
)

require (
	cloud.google.com/go v0.107.0 // indirect
	cloud.google.com/go/compute v1.18.0 // indirect
	cloud.google.com/go/compute/metadata v0.2.3 // indirect
	cloud.google.com/go/longrunning v0.3.0 // indirect
	github.com/golang/groupcache v0.0.0-20200121045136-8c9f03a8e57e // indirect
	github.com/golang/protobuf v1.5.2 // indirect
	github.com/google/go-cmp v0.5.9 // indirect
	github.com/googleapis/enterprise-certificate-proxy v0.2.3 // indirect
	github.com/googleapis/gax-go/v2 v2.7.0 // indirect
	go.opencensus.io v0.24.0 // indirect
	golang.org/x/net v0.7.0 // indirect
	golang.org/x/oauth2 v0.5.0 // indirect
	golang.org/x/sys v0.5.0 // indirect
	golang.org/x/text v0.7.0 // indirect
	google.golang.org/api v0.110.0 // indirect
	google.golang.org/appengine v1.6.7 // indirect
	google.golang.org/genproto v0.0.0-20230222225845-10f96fb3dbec // indirect
	google.golang.org/grpc v1.53.0 // indirect
	google.golang.org/protobuf v1.28.1 // indirect
)
